<svg width="5502" height="3909" viewBox="0 0 5502 3909" fill="none" xmlns="http://www.w3.org/2000/svg">
<path d="M133.408 1193.85C401.968 377 1093.97 -117.01 1828.65 23.8991C2564.04 73.1301 3044.06 777.06 3486.2 994.2C3928.35 1211.34 5231.06 332.26 5465.31 1987.13C5699.55 3642.01 4742.32 3901.41 4179.62 3901.41C3616.91 3901.41 1863.42 3914.27 1090.12 3901.41C-82.3816 3620.91 -135.152 2010.69 133.408 1193.85Z" fill="#EDEFF1"/>
<path d="M3328.12 222.9H2583.57V758.84H3328.12V222.9Z" fill="#1D7296"/>
<path d="M2872.74 438.53L2784.14 482.69L2872.74 526.21L2861.16 557.49L2754.95 502.07V463.75L2861.16 408L2872.74 438.53Z" fill="#F9FBFC"/>
<path d="M3003.25 336.34L2938.92 624.83L2908.34 616.49L2972.93 328.33L3003.25 336.34Z" fill="#F9FBFC"/>
<path d="M3157.01 463.64V501.96L3050.8 557.39L3039.22 526.1L3127.55 482.59L3039.22 438.42L3050.8 407.79L3157.01 463.64Z" fill="#F9FBFC"/>
<path d="M3726.59 1261.33H3302.55V1614.23H3726.59V1261.33Z" fill="#1D7296"/>
<path d="M3479.95 1337.46C3466.32 1337.46 3461.79 1341.77 3461.79 1353.68V1406.83C3461.79 1427.62 3454.46 1433.89 3442.04 1437.91C3454.38 1441.69 3461.79 1447.98 3461.79 1468.54V1521.69C3461.79 1533.6 3466.52 1537.93 3479.95 1537.93V1561.19C3445.56 1561.19 3435.75 1548.31 3435.75 1521.48V1471.14C3435.75 1456.75 3432.51 1451.11 3421.28 1451.11V1424.49C3432.51 1424.49 3435.75 1418.64 3435.75 1404.23V1353.91C3435.75 1326.85 3445.48 1314.18 3479.95 1314.18V1337.46Z" fill="#EDEFF1"/>
<path d="M3593.4 1353.89V1404.23C3593.4 1418.62 3596.64 1424.47 3608.14 1424.47V1450.98C3596.64 1450.98 3593.4 1456.5 3593.4 1471.01V1521.35C3593.4 1548.2 3583.67 1561.08 3549.18 1561.08V1537.8C3562.63 1537.8 3567.36 1533.46 3567.36 1521.56V1468.41C3567.36 1447.96 3574.67 1441.57 3587.1 1437.77C3574.77 1433.78 3567.36 1427.39 3567.36 1406.72V1353.57C3567.36 1341.66 3562.81 1337.32 3549.18 1337.32V1314.04C3583.67 1314.16 3593.4 1326.83 3593.4 1353.89Z" fill="#EDEFF1"/>
<path d="M2271.21 688.37H1795.46V1059.99H2271.21V688.37Z" fill="#1D7296"/>
<path d="M1952.94 795.11C1930.23 828.34 1930.59 876.83 1953.67 909.63C1979.99 946.87 2025.05 952.93 2057.39 927.71L2107.35 986.05C2109.48 988.55 2112.92 988.55 2114.95 986.05L2128.95 969.71C2131.08 967.22 2131.08 963.21 2128.95 960.83L2078.99 902.49C2099.19 867.09 2095.95 818.7 2069.25 787.42C2036.71 749.31 1982.4 751.91 1952.94 795.11ZM2053.12 897.4C2031.63 922.51 1996.58 922.51 1975.09 897.4C1953.57 872.29 1953.57 831.37 1975.09 806.25C1996.58 781.14 2031.63 781.14 2053.12 806.25C2074.64 831.26 2074.64 872.18 2053.12 897.4Z" fill="#F9FBFC"/>
<path d="M3056.74 1447.75C3055.73 1459.98 3041.36 1588.14 2928.46 1588.14C2810 1588.14 2829.85 1451.21 2829.85 1451.21L2829.67 1450.35C2841.25 1447.52 2853.67 1446.54 2866.82 1448.28V1383.44L3001.31 1295.54H3006.22V1446.87C3006.22 1446.87 3027.54 1443.94 3056.74 1447.75Z" fill="#FFC8AF"/>
<path d="M2991.5 1005.97C3010.61 1028.6 3024.97 1057.82 3031.92 1093.44C3044.8 1160.01 3032.66 1230.37 3016.17 1294.45C3013.39 1305.39 3010.13 1316.55 3004.29 1325.74C3000.12 1332.35 2994.84 1337.76 2989.57 1343.17C2965.65 1367.52 2941.73 1391.88 2917.81 1416.23C2901.6 1432.8 2802.05 1446.54 2783.06 1430.64C2709.83 1369.47 2695.75 1192.27 2710.39 1101.66C2734.77 951.52 2900.11 897.72 2991.5 1005.97Z" fill="#FFC8AF"/>
<path d="M2950.35 1198.32C2951.37 1183.82 2964.06 1168.01 2976.86 1177.43C2990.11 1187.18 2986.95 1212.83 2981.49 1227.01C2977.23 1238.06 2962.77 1250.29 2953.04 1239.89C2944.87 1231.23 2957.57 1221.07 2957.94 1213.15C2958.32 1206.01 2946.18 1200.92 2951.19 1193.35" fill="#F7B094"/>
<path d="M2952.68 1265.23C2966.01 1269.9 2988.64 1257.99 2994.38 1236.34C3000.12 1214.57 2999.48 1189.78 2999.48 1189.78C2999.48 1189.78 3006.24 1209.49 3002.72 1241.1C2999.2 1272.71 2989.75 1302.79 2968.51 1303.23C2947.29 1303.55 2952.68 1265.23 2952.68 1265.23Z" fill="#F7B094"/>
<path d="M2936.25 1242.72C2935.79 1242.93 2935.34 1243.14 2934.78 1243.25C2926.53 1244.55 2923.2 1232.97 2921.99 1225.62C2919.11 1208.51 2919.58 1191.29 2919.03 1173.98C2918.93 1169.64 2919.21 1164.23 2917.72 1160.23C2913.09 1147.77 2900.67 1139.77 2896.96 1126.89C2892.6 1111.96 2904.92 1097.13 2900.02 1080.77C2892.51 1055.77 2864.99 1050.03 2845.06 1050.25C2815.21 1050.68 2786.1 1057.18 2756.64 1062.48C2725.49 1068.11 2685.82 1073.41 2658.38 1050.46C2625.39 1022.75 2611.58 950.66 2636.23 911.15C2649.68 889.61 2675.17 878.13 2697.5 877.59C2721.14 876.94 2741.15 893.39 2762.84 901.73C2780.18 908.33 2796.85 889.06 2812.98 885.27C2833.28 880.51 2841.91 906.38 2859.89 907.14C2877.31 907.79 2894.45 891.88 2911.42 888.31C2945.25 881.05 2943.3 920.78 2965.91 934.31C2980.01 942.76 2998.27 937.67 3012.54 946.22C3023.38 952.72 3024.87 964.19 3027.28 977.07C3029.32 988.22 3029.4 1001.21 3032.56 1011.82C3035.44 1021.34 3042.3 1027.41 3047.66 1034.88C3053.5 1043 3057.31 1052.63 3060.27 1062.8C3066.85 1085.54 3068.34 1110.01 3066.48 1133.82C3063.43 1173.77 3052.49 1213.06 3041.08 1250.61C3033.67 1274.98 3030.89 1300.42 3019.59 1323.47C3016.53 1329.64 3002.9 1347.83 2997.9 1334.3C2996.78 1331.38 2996.96 1328.13 2997.16 1324.98C2998.63 1299.86 3018.66 1137.82 2966.19 1157.31C2955.16 1161.42 2947.75 1172.14 2943.68 1184.37C2938.75 1198.97 2938.4 1213.71 2939.03 1229.19C2939.13 1231.35 2939.13 1233.62 2939.13 1235.78C2939.03 1238.61 2938.4 1241.42 2936.25 1242.72Z" fill="#181F3A"/>
<path d="M2866.94 1433.34C2926.72 1422.08 2966.11 1366.98 2966.11 1366.98C2966.11 1366.98 2949.98 1459.86 2863.32 1464.83L2866.94 1433.34Z" fill="#F7B094"/>
<path d="M2964.98 2699.64H3050.54V3657.97C3050.54 3667.71 3043.77 3675.63 3035.42 3675.63H2980.1C2971.75 3675.63 2964.98 3667.71 2964.98 3657.97V2699.64Z" fill="#181F3A"/>
<path d="M2772.57 2713.29H3242.86V2728.33C3242.86 2766.11 3216.62 2796.63 3184.38 2796.63H2831.14C2798.8 2796.63 2772.66 2766 2772.66 2728.33V2713.29H2772.57Z" fill="#085575"/>
<path d="M2964.98 3561.86H3050.54V3783.87C3050.54 3793.6 3043.77 3801.51 3035.42 3801.51H2980.1C2971.75 3801.51 2964.98 3793.6 2964.98 3783.87V3561.86Z" fill="#0A2033"/>
<path d="M2563.94 3743.05C2563.94 3775.31 2586.37 3801.51 2613.98 3801.51C2641.61 3801.51 2664.04 3775.31 2664.04 3743.05C2664.04 3710.79 2641.61 3684.61 2613.98 3684.61C2586.37 3684.61 2563.94 3710.79 2563.94 3743.05Z" fill="#0A2033"/>
<path d="M3351.41 3743.05C3351.41 3775.31 3373.84 3801.51 3401.46 3801.51C3429.07 3801.51 3451.5 3775.31 3451.5 3743.05C3451.5 3710.79 3429.07 3684.61 3401.46 3684.61C3373.84 3684.61 3351.41 3710.79 3351.41 3743.05Z" fill="#0A2033"/>
<path d="M2921.74 3662.96H3093.78V3487.38H2921.74V3662.96Z" fill="#181F3A"/>
<path d="M2563.94 3704.31H3451.5V3683.96C3451.5 3649.54 3427.58 3621.71 3398.2 3621.71H2617.22C2587.76 3621.71 2563.94 3649.54 2563.94 3683.96V3704.31Z" fill="#E94040"/>
<path d="M3007.71 2816.34H2978.05V3471.78H3007.71V2816.34Z" fill="#085575"/>
<path d="M3343.71 2005.02C3323.22 2004.25 3306.54 2024.05 3307.65 2047.98C3313.49 2166.95 3291.89 2457.18 3197.07 2556.21C3081.04 2677.24 2752.27 2660.79 2752.27 2660.79C2752.27 2660.79 2697.96 2738.61 2806.58 2755.93C2915.21 2773.26 3221.27 2761.68 3295.23 2681.03C3366.89 2602.86 3409.42 2398.18 3377.36 2041.92C3375.59 2021.45 3361.33 2005.65 3343.71 2005.02Z" fill="#E94040"/>
<path d="M2727.71 3471.78L2766.83 3575.92L2646.98 3637.31L2607.76 3532.84L2727.71 3471.78Z" fill="#FFC8AF"/>
<path d="M3292.63 2314.49C3285.2 2331.81 2752.91 2314.81 2702.67 2320.22C2702.67 2320.22 2376.88 2501.88 2330.08 2671.82C2325.35 2688.92 2324.06 2711.55 2325.45 2738.61C2338.52 2977.94 2571.89 3551.13 2571.89 3551.13L2607.77 3532.84L2727.7 3471.78L2744.76 3463.13C2744.76 3463.13 2559.65 2818.94 2596.64 2784.29C2633.63 2749.66 3053.21 2663.27 3198.73 2617.27C3344.44 2571.04 3292.63 2314.49 3292.63 2314.49Z" fill="#3A92B7"/>
<path d="M2270.95 3498.52L2280.31 3654.95H2149.53L2140.26 3498.2L2270.95 3498.52Z" fill="#FFC8AF"/>
<path d="M2700 2314.93L2695.27 2317.3C2695.27 2317.3 2149.91 2406.72 2061.01 2585.34C2003.27 2701.59 2115.04 3550.81 2115.04 3550.81L2308.02 3551.34C2308.02 3551.34 2279.2 2843.93 2288.75 2804.53C2299.58 2759.61 2318.03 2743.27 2325.45 2738.61C2323.96 2711.66 2325.27 2688.92 2330.08 2671.82C2376.88 2501.76 2702.68 2320.22 2702.68 2320.22C2701.67 2319.36 2700.74 2317.53 2700 2314.93Z" fill="#207599"/>
<path d="M3226.82 1726.37L3190.2 1732.22C3190.2 1732.22 3181.3 1847.39 3159.53 1962.57L2703.88 2164.56L2697.68 2203.11C2695.73 2202.88 2693.79 2202.78 2692.02 2202.55C2692.2 2210.47 2692.2 2218.26 2692.48 2225.51C2693.51 2270 2696.01 2301.93 2699.99 2314.7C2700.72 2317.3 2701.65 2319.25 2702.67 2320.11C2715.1 2331.92 2876.18 2309.08 3050.44 2383.77C3201.51 2448.61 3286.23 2519.29 3290.13 2509.89C3337.67 2394.7 3251.19 1942.22 3226.82 1726.37Z" fill="#4B98D1"/>
<path d="M3179.27 1990.28C3167.14 2058.38 3135.71 2194.01 3074.16 2212.21C2993.71 2236.02 2838.27 2234.81 2692.57 2225.74C2692.3 2218.47 2692.3 2210.68 2692.12 2202.78C2693.87 2202.99 2695.81 2203.11 2697.76 2203.32L2703.98 2164.79L3159.63 1962.78C3181.4 1847.62 3190.3 1732.43 3190.3 1732.43C3190.3 1732.43 3190.3 1733.08 3190.48 1734.38C3191.23 1751.93 3197.43 1889.6 3179.27 1990.28Z" fill="#1D7296"/>
<path d="M2722.51 1556.32C2714.37 1573.63 2702.68 1758.63 2696.29 1942.33L2603.14 1840.79C2642.71 1751.37 2722.51 1556.32 2722.51 1556.32Z" fill="#4B98D1"/>
<path d="M2666.73 2076.55C2588.12 2092.47 2515.82 2106.12 2515.82 2106.12L2515.64 2110.65C2428.15 2029.04 2294.95 1797.81 2294.95 1797.81C2294.95 1797.81 2334.82 1741.95 2344.73 1727.23C2346.21 1724.96 2563.28 1899.47 2574.41 1897.94C2577.19 1897.61 2588.31 1874.77 2603.14 1840.89L2696.29 1942.43C2694.82 1986.17 2693.6 2029.79 2692.87 2071.14C2684.15 2072.88 2675.43 2074.6 2666.73 2076.55Z" fill="#F7B094"/>
<path d="M2515.82 2106.12L2513.88 2181.89H2276.97C2276.97 2181.89 2300.52 2073.74 2364.65 2073.74C2428.79 2073.74 2453.54 2113.36 2453.54 2113.36L2515.82 2106.12Z" fill="#FFC8AF"/>
<path d="M2342.97 1725.51L2344.72 1727.23C2334.8 1741.97 2294.95 1797.81 2294.95 1797.81L2270.2 1777.36C2270.2 1777.36 2242.96 1796.74 2211.26 1776.48C2178.26 1755.59 2198.66 1705.58 2200.33 1699.64C2193.93 1701.68 2154.34 1739.14 2148.14 1735.15C2141.92 1731.13 2137.29 1718.04 2181.6 1667.05C2225.72 1616.06 2285.87 1681.56 2287.62 1681.56L2342.97 1725.51Z" fill="#F7B094"/>
<path d="M2216.44 1767.83C2216.44 1767.83 2206.9 1788.73 2223.85 1797.81C2240.82 1806.91 2273.82 1813.41 2288 1811.9C2302.18 1810.37 2313.49 1787.11 2313.49 1787.11L2270.58 1740.02H2236.19L2216.44 1767.83Z" fill="#F7B094"/>
<path d="M2213.94 1778.01C2216.44 1767.71 2240.92 1773.23 2256.02 1773.67C2267.14 1774 2273.26 1770.54 2276.69 1760.68C2280.11 1750.72 2264 1735.03 2260.74 1739.9C2257.6 1744.87 2266.58 1751.81 2266.86 1758.4C2267.14 1765.02 2250.93 1767.18 2238.51 1767.18C2226.08 1767.18 2204.58 1770.96 2204.58 1770.96L2213.94 1778.01Z" fill="#E8987C"/>
<path d="M3136.46 2060.86L2904.37 1964.85C2887.5 2001.65 2869.42 2029.37 2851.54 2034.89C2824.47 2043.22 2758.95 2057.52 2692.95 2071.05C2684.25 2073 2675.43 2074.72 2666.73 2076.55C2588.12 2092.47 2515.82 2106.12 2515.82 2106.12L2515.64 2110.67V2113.59L2513.88 2181.89V2199.21C2513.88 2199.21 2592.67 2194.55 2692.02 2202.67C2831.06 2214.25 3010.41 2221.19 3069.81 2188.49C3097.62 2173.12 3119.87 2122.57 3137.38 2060.33C3137.02 2060.42 3136.74 2060.65 3136.46 2060.86Z" fill="#FFC8AF"/>
<path d="M2904.37 1964.85L3136.45 2060.86L3125.89 2097.02L2896.2 1981.95L2904.37 1964.85Z" fill="#F7B094"/>
<path d="M2904.38 1964.85C2887.5 2001.65 2869.44 2029.37 2851.54 2034.89C2824.48 2043.22 2758.94 2057.52 2692.97 2071.05C2693.7 2029.69 2694.9 1986.17 2696.38 1942.33C2702.78 1758.63 2714.46 1573.63 2722.61 1556.32C2735.96 1527.4 2772.39 1464.62 2829.86 1450.35L2830.04 1451.21C2830.04 1451.21 2810.2 1588.14 2928.66 1588.14C3041.46 1588.14 3055.82 1459.98 3056.94 1447.75C3114.96 1455.32 3204.03 1489.2 3216.26 1625.48C3218.77 1652.45 3222.38 1687.08 3226.93 1726.26L3190.32 1732.11C3190.32 1732.11 3175.48 1924.04 3137.47 2060.21C3137.2 2060.44 3136.92 2060.54 3136.56 2060.77L2904.38 1964.85Z" fill="#4B98D1"/>
<path d="M2901.96 1939.85L2994.64 1677.87L2926.34 1950.46L2901.96 1939.85Z" fill="#1D7296"/>
<path d="M3056.74 1447.75H3006.22C3006.22 1447.75 2934.39 1539.86 2888.14 1539.86C2841.89 1539.86 2866.82 1448.17 2866.82 1448.17H2844.31C2779.51 1448.17 2725.11 1505.01 2717.78 1580.13C2716.95 1588.68 2716.21 1596.91 2715.56 1604.27C2710.65 1660.02 2903.99 1700.61 2903.99 1700.61L3003.54 1694.11L3063.97 1556.32L3076.01 1499.92L3056.74 1447.75Z" fill="#4B98D1"/>
<path d="M2447.43 3757.14C2451.97 3785.29 2468.66 3805.32 2492.76 3800.12L2814.37 3730.07C2822.54 3728.34 2827.9 3719.14 2826.33 3709.61L2821.05 3676.28C2821.05 3676.28 2482.75 3745.44 2447.24 3756.93L2447.43 3757.14Z" fill="#F1F2F2"/>
<path d="M2543.09 3662.52C2546.43 3659.17 2549.69 3655.71 2553.03 3652.35C2559.5 3645.64 2565.8 3639.03 2571.92 3632.64C2575.18 3629.3 2578.42 3625.94 2581.38 3622.69C2587.22 3616.51 2592.78 3610.78 2597.79 3605.58C2601.3 3601.8 2604.64 3598.22 2607.7 3595.09C2613.16 3589.36 2617.71 3584.58 2620.87 3581.33C2623.55 3578.52 2627.63 3578.31 2630.41 3581.12C2643.66 3594.12 2686.39 3623.78 2763.79 3567.8C2767.5 3565.1 2772.31 3566.5 2774.36 3571.05L2821.16 3676.16C2821.16 3676.16 2482.86 3745.34 2447.36 3756.81C2458.94 3748.36 2502.13 3704.73 2543.09 3662.52Z" fill="#3D3D7A"/>
<path d="M1940.91 3753.45C1941.47 3782.13 1955.28 3804.97 1979.83 3804.32L2306.93 3795.02C2315.17 3794.8 2321.75 3786.8 2321.57 3777.05L2320.83 3743.17C2320.83 3743.17 1977.43 3748.48 1940.82 3753.24L1940.91 3753.45Z" fill="#F1F2F2"/>
<path d="M2048.23 3677.9C2052.03 3675.19 2055.64 3672.47 2059.44 3669.66C2066.77 3664.25 2073.9 3658.94 2080.77 3653.76C2084.37 3651.05 2088.08 3648.34 2091.42 3645.74C2098.1 3640.77 2104.31 3636.1 2109.86 3631.88C2113.95 3628.86 2117.65 3625.94 2121.08 3623.34C2127.3 3618.67 2132.39 3614.89 2135.92 3612.2C2138.96 3609.92 2142.95 3610.46 2145.36 3613.7C2156.68 3628.96 2194.77 3666.2 2278.84 3625.4C2282.81 3623.45 2287.46 3625.73 2288.75 3630.48L2320.64 3742.96C2320.64 3742.96 1977.23 3748.25 1940.62 3753.03C1953.41 3746.95 2001.98 3711.88 2048.23 3677.9Z" fill="#3D3D7A"/>
<path d="M1708.15 2199.21L1533.52 1655.15H2030.79L2205.51 2199.21H1708.15Z" fill="#ABB5BA"/>
<path d="M2236.19 2199.21H2205.5L2030.79 1655.15L2058.68 1656.56L2220.34 2149.08L2236.19 2199.21Z" fill="#8495A0"/>
<path d="M2226.54 2199.21H2555.12L2554.19 2164.89C2554.19 2164.89 2225.24 2164.89 2219.78 2164.89" fill="#8495A0"/>
<path d="M3626.58 2303.02H3547.43V3821.01H3626.58V2303.02Z" fill="#8495A0"/>
<path d="M3197.16 2303.02H3118.01V3821.01H3197.16V2303.02Z" fill="#ABB5BA"/>
<path d="M1821.34 2303.02H1742.17V3821.01H1821.34V2303.02Z" fill="#8495A0"/>
<path d="M1391.91 2303.02H1312.75V3821.01H1391.91V2303.02Z" fill="#ABB5BA"/>
<path d="M3705.73 2308.76H1236.94C1215.72 2308.76 1198.48 2288.61 1198.48 2263.83V2244.12C1198.48 2219.33 1215.72 2199.21 1236.94 2199.21H3705.73C3726.96 2199.21 3744.21 2219.33 3744.21 2244.12V2263.83C3744.21 2288.61 3726.96 2308.76 3705.73 2308.76Z" fill="#181F3A"/>
<path d="M1616.6 1712.31L1625.02 1738.81H1724.11L1715.57 1712.31H1616.6Z" fill="#8495A0"/>
<path d="M2603.14 1840.79L2596.1 1856.92L2696.29 1977.84V1942.33L2603.14 1840.79Z" fill="#E8987C"/>
<path d="M4649.47 3801.51H646.158V3908.25H4649.47V3801.51Z" fill="#A5B7C6"/>
<path d="M4014.76 3009.67C3998.81 3099.84 4003.64 3253.34 3901.59 3277.59C3874.05 3284.07 3847.55 3261.88 3831.6 3236.35C3810.66 3203 3805.65 3132.31 3806.03 3091.94C3806.31 3059.89 3815.67 3024.17 3818.63 2991.91C3821.88 2957.06 3824.57 2922.1 3828 2887.24C3840.5 2761.56 3896.76 2656.24 3991.86 2593.56C3999.19 2634.8 4015.96 2669.77 4030.8 2709.28C4037.55 2727.35 4043.59 2746.41 4048.04 2765.35C4055.81 2798.91 4046.37 2832.68 4039.42 2864.82C4029.03 2912.24 4023.19 2961.72 4014.76 3009.67Z" fill="#3A92B7"/>
<path d="M3884.25 3280.61C3885 3273.04 3885.73 3265.46 3886.67 3257.98C3898.9 3257.98 3911.6 3249.86 3921.79 3243.71C3939.59 3232.99 3953.95 3217.51 3967.86 3201.05C3968.6 3200.19 3967.3 3198.78 3966.55 3199.54C3952.66 3213.17 3938.2 3226.37 3921.69 3235.36C3912.43 3240.34 3898.99 3248.56 3887.58 3250.19C3888.7 3241.2 3889.81 3232.13 3891.12 3223.12C3903.81 3221.29 3915.49 3211.54 3926.24 3204.09C3944.5 3191.42 3960.25 3175.08 3976.56 3159.27C3976.76 3159.04 3976.56 3158.72 3976.38 3158.95C3951.45 3180.05 3923.64 3210.15 3892.13 3216.74C3893.8 3205.48 3895.57 3194.23 3897.6 3183.09C3897.69 3182.53 3897.79 3181.88 3897.87 3181.35C3934.39 3170.53 3959.06 3137.18 3987.05 3110.12C3987.51 3109.68 3987.05 3108.82 3986.49 3109.26C3958.96 3134.26 3933.1 3162.73 3899.08 3174.85C3902.04 3158.95 3905.1 3143.03 3908.16 3127.11C3941.16 3112.93 3967.58 3090.32 3990.65 3058.8C3991.03 3058.27 3990.37 3057.5 3990.01 3058.06C3966.09 3087.07 3939.77 3103.73 3909.55 3120.3C3912.61 3104.59 3915.67 3088.79 3918.55 3073.1C3932.82 3064.86 3947.84 3059.89 3961.09 3049.08C3974.06 3038.45 3985.74 3025.8 3994.18 3009.88C3994.64 3009.02 3993.53 3008.25 3993.07 3009.02C3974.62 3040.07 3946.72 3049.73 3919.84 3065.95C3922.45 3051.24 3924.95 3036.5 3927.07 3021.67C3957.11 3002.41 3989.63 2984.56 4006.7 2947.54C4006.88 2947.21 4006.42 2946.77 4006.22 2947.21C3988.24 2981.19 3956.74 2995.81 3928.19 3014.31C3928.56 3011.71 3928.92 3009.02 3929.3 3006.42C3931.15 2992.68 3932.82 2978.92 3934.58 2965.06C3951.83 2957.05 3968.22 2945.59 3983.79 2933.78C3994.82 2925.44 4006.6 2917.11 4013.73 2904.02C4014.21 2903.14 4013.18 2902.4 4012.62 2903.14C3996.49 2930.11 3961.27 2945.59 3935.22 2959.12C3936.89 2945.15 3938.56 2931.29 3940.33 2917.32C3969.25 2896.87 4003.16 2885.62 4020.96 2848.81C4021.52 2847.72 4020.13 2846.74 4019.57 2847.72C4001.14 2881.28 3968.78 2891.67 3941.16 2910.73C3942.18 2902.07 3943.29 2893.51 3944.4 2884.85C3975.55 2871.44 4011.88 2841.01 4028.29 2808.1C4029.21 2806.27 4026.98 2804.64 4025.97 2806.38C4009.2 2835.28 3975.55 2866.66 3945.33 2878.14C3947.18 2864.17 3949.13 2850.22 3951.27 2836.37C3951.45 2835.93 3951.63 2835.6 3951.73 2835.16C3965.72 2830.4 3979.54 2818.82 3991.68 2810.16C4006.22 2799.65 4020.13 2787.42 4029.21 2770.22C4030.24 2768.27 4027.54 2766.53 4026.62 2768.48C4012.82 2797.38 3979.9 2816.66 3952.66 2827.69C3953.5 2822.61 3954.23 2817.52 3955.07 2812.53C3956.36 2804.97 3957.67 2797.38 3958.96 2789.81C3970.08 2780.83 3984.27 2776.49 3995.47 2767.07C4005.21 2758.85 4013.73 2748.89 4021.98 2738.82C4022.81 2737.85 4021.62 2736.22 4020.69 2737.2C4009.38 2749.66 3997.8 2761.45 3984.07 2770.11C3976.38 2774.87 3967.66 2777.69 3960.15 2782.87C3962.3 2770.55 3964.52 2758.09 3966.55 2745.76C3966.65 2745.76 3966.83 2745.64 3966.93 2745.64C3967.03 2745.64 3967.21 2745.76 3967.3 2745.76C3968.04 2745.97 3968.69 2745.64 3969.15 2745.11C3984.27 2740.66 3995.93 2725.41 4006.04 2712.41C4006.32 2712.08 4005.95 2711.64 4005.67 2711.97C3995.02 2723.57 3982.88 2736.34 3968.5 2741.21C3968.42 2741.21 3968.42 2741.1 3968.32 2741.1C3967.94 2740.98 3967.58 2740.98 3967.21 2740.89C3968.87 2730.81 3970.44 2720.74 3971.84 2710.57C3972.95 2710.36 3973.88 2709.27 3973.6 2707.98C3981.67 2701.69 3988.9 2693.68 3995.75 2685.79C3996.31 2685.23 3995.57 2684.26 3995.02 2684.81C3987.87 2691.96 3980.83 2697.9 3972.87 2703.1C3975.73 2682.21 3977.87 2661.21 3978.89 2639.88C3978.98 2637.93 3976.48 2637.93 3976.29 2639.88C3974.71 2660.35 3972.11 2680.59 3969.15 2700.71C3960.81 2687.95 3951.45 2674.74 3946.35 2660.02C3946.07 2659.26 3945.05 2659.59 3945.23 2660.35C3947.74 2669.43 3952.01 2677.45 3956.28 2685.46C3960.07 2692.71 3963.13 2701.15 3968.04 2707.54C3966.37 2718.37 3964.52 2729.19 3962.66 2739.91C3952.47 2737.96 3943.21 2735.8 3934.76 2727.12C3924.47 2716.63 3918.63 2702.34 3917.62 2686.44C3917.52 2684.49 3914.84 2684.49 3915.02 2686.44C3916.13 2701.15 3921.23 2715.01 3929.86 2726.05C3938.94 2737.64 3949.6 2741.31 3961.82 2744.23C3959.61 2756.69 3957.29 2769.13 3954.97 2781.48C3945.71 2774.98 3937.17 2766.53 3928.84 2758.85C3915.39 2746.41 3907.51 2731.35 3895.84 2717.28C3894.63 2715.87 3892.79 2717.93 3893.9 2719.35C3904.83 2732.88 3912.16 2747.59 3924.67 2759.71C3933.55 2768.48 3943.48 2779.53 3954.13 2785.91C3954.05 2786.56 3953.86 2787.21 3953.77 2787.86C3953.68 2787.98 3953.5 2788.07 3953.4 2788.19C3952.56 2789.16 3952.66 2790.14 3953.12 2791C3950.89 2802.9 3948.67 2814.81 3946.44 2826.71C3946.35 2827.48 3946.17 2828.24 3946.07 2828.99C3922.35 2816.34 3886.85 2794.24 3883.69 2762.1C3883.41 2759.06 3879.52 2759.94 3880.07 2763.07C3887.12 2799.44 3921.33 2815.57 3944.96 2835.49C3942.65 2849.02 3940.51 2862.45 3938.56 2876.08C3923.28 2869.91 3908.62 2862.34 3895.75 2850.32C3884.07 2839.5 3867.48 2826.29 3862.19 2809.51C3862.01 2808.98 3861.36 2809.3 3861.54 2809.84C3866.46 2826.62 3881.28 2838.09 3892.13 2849.57C3905.84 2864.08 3919.94 2876.4 3937.55 2882.14C3937.45 2882.69 3937.37 2883.34 3937.55 2883.99C3936.33 2892.53 3935.14 2901.19 3934.03 2909.75C3905.2 2907.15 3864.88 2881.6 3850.15 2856.17C3850.05 2856.05 3849.96 2856.17 3849.96 2856.28C3859.97 2875.75 3875.17 2887.13 3892.31 2896.97C3905.1 2904.35 3918.91 2913 3933.37 2914.3C3931.34 2930.2 3929.3 2946.24 3927.25 2962.14C3914.74 2956.73 3901.49 2954.13 3889.07 2948.28C3870.63 2939.74 3856.63 2924.26 3845.78 2905.21C3845.15 2904.02 3843.48 2905 3844.12 2906.18C3864.04 2943.2 3892.79 2954.13 3926.42 2967.99C3924.75 2981.08 3923 2994.19 3921.14 3007.18C3893.62 3001.01 3858.02 2981.4 3844.03 2953.48C3843 2951.42 3840.22 2953.16 3841.25 2955.22C3850.05 2973.07 3865.25 2984.44 3880.63 2993.54C3891.75 3000.13 3907.15 3010.97 3920.4 3012.15C3920.3 3012.59 3920.3 3013.01 3920.22 3013.45C3917.52 3032.3 3914.28 3050.91 3910.85 3069.53C3880.07 3060.54 3860.25 3033.92 3837.82 3009.02C3836.25 3007.28 3833.82 3009.88 3835.41 3011.71C3858.2 3037.92 3878.22 3065.42 3909.83 3075.05C3906.95 3090.2 3903.99 3105.36 3900.85 3120.4C3874.61 3111.86 3848.76 3090.09 3831.8 3065.19C3830.59 3063.47 3828.46 3065.84 3829.65 3067.58C3847.27 3094.64 3872.66 3115.11 3899.74 3126.25C3896.3 3142.38 3892.79 3158.62 3889.25 3174.75C3862.37 3169.98 3841.61 3150.27 3825.02 3125.39C3824.65 3124.83 3823.73 3125.6 3824.09 3126.13C3838.83 3150.06 3861.08 3177.66 3887.86 3180.58C3886.75 3185.78 3885.55 3190.88 3884.44 3196.06C3883.79 3199.22 3883.05 3202.35 3882.3 3205.48C3862.01 3198.57 3843.2 3190 3826.41 3173.99C3825.96 3173.55 3825.4 3174.43 3825.86 3174.85C3841.81 3191.63 3860.8 3202.89 3881.19 3210.15C3878.96 3219.78 3876.56 3229.85 3874.15 3239.9C3869.15 3237.21 3864.24 3234.17 3858.76 3232.22C3848.66 3228.65 3842.17 3221.17 3833.37 3215.02C3832.53 3214.47 3831.7 3215.77 3832.43 3216.42C3840.14 3222.26 3845.6 3229.85 3854.41 3233.75C3860.9 3236.56 3867.1 3240.23 3873.42 3243.48C3864.14 3283.75 3855.98 3326.52 3860.43 3365.16C3861.46 3373.7 3873.69 3375.98 3875.64 3366.88C3881.84 3339.17 3881.56 3309.3 3884.25 3280.61Z" fill="#1D7296"/>
<path d="M3691.64 2983.91C3709.82 3073.42 3769.6 3210.24 3685.9 3282.56C3663.37 3302.05 3631.23 3295.02 3607.49 3279.75C3576.44 3259.84 3546.42 3198.24 3532.14 3161.43C3520.83 3132.21 3516.38 3095.29 3507.48 3064.56C3497.85 3031.32 3487.56 2998.3 3478.1 2964.97C3444.09 2844.79 3456.96 2721.72 3520.46 2617.9C3542.05 2651.69 3569.86 2675.07 3597.58 2703.64C3610.17 2716.63 3622.61 2730.93 3633.44 2745.97C3652.63 2772.5 3656.34 2807.89 3661.62 2840.36C3669.41 2888.43 3682.01 2936.17 3691.64 2983.91Z" fill="#3E96BB"/>
<path d="M3671.36 3293.82C3669.31 3286.57 3667.27 3279.31 3665.32 3272.07C3676.36 3265.99 3684.99 3252.46 3692.02 3241.76C3704.26 3223.24 3711.67 3202.14 3718.44 3180.37C3718.8 3179.19 3717.13 3178.54 3716.67 3179.61C3708.99 3198.89 3700.74 3217.94 3688.96 3234.29C3682.38 3243.38 3673.11 3257.45 3663.37 3264.48C3661.07 3255.82 3658.92 3247.05 3656.8 3238.28C3667.64 3230.39 3674.7 3215.77 3681.73 3203.76C3693.69 3183.3 3702.03 3160.67 3711.11 3138.27C3711.21 3138.04 3710.93 3137.83 3710.75 3138.04C3695.82 3169.55 3681.45 3210.47 3655.33 3232.01C3652.72 3220.96 3650.32 3209.92 3648.1 3198.78C3648 3198.24 3647.9 3197.59 3647.72 3197.04C3676.92 3169.33 3687.19 3126.78 3702.77 3088.58C3703.05 3087.93 3702.21 3087.39 3701.93 3088.04C3686 3124.18 3672.83 3162.85 3646.43 3190.56C3643.37 3174.64 3640.39 3158.72 3637.43 3142.82C3662.26 3113.69 3677.93 3080.13 3687.47 3040.3C3687.67 3039.65 3686.83 3039.21 3686.64 3039.98C3675.53 3078.09 3657.63 3106.12 3636.14 3136.11C3633.26 3120.3 3630.3 3104.59 3627.14 3088.9C3637.15 3074.4 3648.93 3062.49 3656.99 3046.25C3664.96 3030.23 3670.98 3012.92 3672.83 2994.4C3672.93 2993.42 3671.72 2993.21 3671.54 2994.19C3665.98 3031.42 3644.2 3053.93 3625.75 3081.97C3622.79 3067.37 3619.73 3052.75 3616.29 3038.24C3636.5 3005.98 3659.58 2973.72 3661.62 2931.83C3661.62 2931.41 3661.15 2931.29 3661.07 2931.73C3656.99 2971.35 3633.71 3000.13 3614.54 3031C3613.89 3028.4 3613.33 3025.8 3612.68 3023.2C3609.34 3009.76 3605.92 2996.46 3602.48 2983.14C3615.18 2967.34 3625.94 2948.93 3635.76 2930.53C3642.71 2917.55 3650.4 2904.23 3652.17 2888.75C3652.27 2887.78 3651.06 2887.57 3650.88 2888.54C3646.05 2920.9 3619.73 2952.3 3601.01 2977.41C3597.48 2963.99 3593.96 2950.56 3590.53 2937.03C3609.34 2904.35 3636.04 2877.28 3638.92 2835.16C3639 2833.86 3637.43 2833.65 3637.25 2834.95C3632.7 2874.45 3607.03 2899.8 3588.95 2930.76C3586.83 2922.42 3584.68 2914.07 3582.56 2905.74C3606 2878.26 3627.89 2832.68 3630.85 2794.8C3631.03 2792.73 3628.35 2792.29 3628.07 2794.36C3623.34 2828.78 3604.07 2873.92 3580.89 2899.15C3577.55 2885.62 3574.21 2871.97 3571.16 2858.32C3571.25 2857.9 3571.25 2857.46 3571.16 2857.03C3582.1 2845.77 3590.53 2828.45 3598.31 2814.6C3607.77 2797.93 3615.93 2779.97 3617.88 2759.82C3618.06 2757.55 3615.1 2757.34 3614.9 2759.5C3612.77 2792.52 3589.97 2826.29 3569.31 2849.67C3568.19 2844.7 3567.08 2839.71 3566.07 2834.63C3564.48 2827.15 3562.91 2819.59 3561.42 2812.11C3568.29 2798.47 3579.6 2787.65 3586.27 2773.47C3592.11 2761.24 3596.19 2748.03 3600.18 2734.71C3600.54 2733.41 3598.87 2732.55 3598.41 2733.95C3592.67 2750.73 3586.45 2767.3 3577.09 2781.8C3571.91 2789.92 3564.96 2796.75 3560.03 2805.18C3557.53 2792.85 3555.02 2780.62 3552.44 2768.39C3552.52 2768.27 3552.62 2768.16 3552.72 2768.06C3552.8 2768.06 3553 2767.95 3553.08 2767.95C3553.83 2767.74 3554.29 2767.09 3554.47 2766.44C3566.62 2754.95 3571.63 2735.36 3576.16 2718.58C3576.26 2718.14 3575.8 2717.93 3575.61 2718.37C3570.04 2734.06 3563.74 2751.61 3552.52 2763.19C3552.44 2763.19 3552.44 2763.19 3552.34 2763.19C3551.97 2763.28 3551.61 2763.4 3551.33 2763.51C3549.2 2753.56 3546.98 2743.58 3544.65 2733.74C3545.59 2732.97 3546.04 2731.58 3545.31 2730.49C3550.31 2720.86 3554.01 2709.92 3557.35 2699.41C3557.63 2698.67 3556.61 2698.11 3556.33 2698.88C3552.44 2708.83 3548.27 2717.72 3542.8 2726.38C3537.8 2706.03 3532.24 2685.88 3525.46 2666.08C3524.81 2664.25 3522.5 2665.55 3523.06 2667.27C3528.98 2686.53 3533.99 2706.24 3538.53 2725.94C3526.3 2718.47 3513.14 2711.11 3503.21 2700.29C3502.66 2699.74 3501.92 2700.5 3502.38 2701.15C3507.94 2708.19 3514.71 2713.27 3521.49 2718.47C3527.59 2723.13 3533.35 2729.3 3540.1 2732.76C3542.53 2743.37 3544.75 2754.09 3546.88 2764.81C3536.96 2768.06 3527.69 2770.64 3517.04 2766.97C3503.97 2762.54 3493.5 2752.47 3486.82 2738.5C3485.99 2736.78 3483.57 2738.08 3484.5 2739.8C3490.89 2752.58 3500.43 2762.75 3512.21 2768.39C3524.63 2774.33 3535.65 2772.5 3547.81 2769.13C3550.3 2781.48 3552.72 2793.92 3555.02 2806.27C3544.37 2804.97 3533.53 2801.51 3523.14 2798.58C3506.47 2793.82 3493.86 2784.17 3478.2 2777.14C3476.61 2776.49 3475.6 2779.2 3477.17 2779.97C3492.01 2786.89 3503.97 2796.52 3519.62 2801.51C3530.93 2805.08 3543.82 2810.16 3555.86 2810.81C3555.96 2811.46 3556.14 2812.11 3556.24 2812.76C3556.14 2812.97 3556.14 2813.09 3556.06 2813.3C3555.68 2814.6 3556.14 2815.46 3556.89 2815.9C3559.11 2827.8 3561.42 2839.71 3563.74 2851.52C3563.92 2852.27 3564.02 2853.03 3564.2 2853.78C3538.08 2854.01 3497.93 2851.52 3483.48 2823.91C3482.09 2821.31 3478.84 2824.02 3480.51 2826.5C3500.07 2856.05 3536.96 2853.78 3565.51 2860.18C3568.29 2873.48 3571.25 2886.8 3574.31 2900.12C3558.18 2902.07 3542.25 2902.4 3526.2 2897.85C3511.66 2893.74 3491.91 2890.05 3481.06 2877.38C3480.7 2876.96 3480.23 2877.61 3480.6 2878.03C3491.07 2890.81 3508.69 2893.95 3522.68 2898.92C3540.38 2905.32 3557.53 2909.54 3575.61 2906.07C3575.7 2906.71 3575.88 2907.27 3576.26 2907.69C3578.29 2916.02 3580.33 2924.47 3582.38 2932.8C3555.3 2944.71 3509.53 2941.36 3486.9 2925.56C3486.82 2925.44 3486.72 2925.65 3486.82 2925.77C3502.94 2938.44 3520.83 2941.25 3539.92 2941.78C3554.19 2942.11 3569.86 2943.2 3583.49 2937.26C3587.38 2952.72 3591.28 2968.2 3595.25 2983.58C3581.9 2984.77 3569.03 2988.99 3555.68 2989.85C3535.85 2991.15 3517.59 2984 3500.91 2972.21C3499.88 2971.45 3498.76 2973.18 3499.79 2973.95C3531.3 2997.76 3561.24 2993.42 3596.74 2989.43C3599.98 3002.08 3603.04 3014.87 3606.1 3027.52C3578.94 3035.55 3539.55 3035.32 3516.84 3016.82C3515.17 3015.4 3513.23 3018.33 3514.89 3019.74C3529.36 3031.65 3547.16 3034.46 3564.48 3035.11C3577 3035.55 3594.8 3037.92 3607.21 3032.39C3607.31 3032.83 3607.39 3033.27 3607.49 3033.69C3611.84 3052.1 3615.65 3070.61 3619.27 3089.11C3588.12 3096.05 3560.5 3081.76 3531.2 3070.17C3529.18 3069.41 3527.97 3072.98 3530.01 3073.86C3560.13 3086.42 3588.22 3101.35 3620.38 3094.52C3623.24 3109.68 3626.03 3124.83 3628.63 3140.1C3601.75 3145.3 3570.42 3138.36 3546.04 3124.09C3544.28 3123.11 3543.26 3126.25 3544.93 3127.34C3570.7 3143.14 3601.09 3149.2 3629.64 3145.95C3632.42 3162.29 3635.02 3178.65 3637.61 3195.09C3611.48 3203.97 3585.62 3196.39 3561.52 3182C3560.96 3181.67 3560.41 3182.76 3560.96 3183.18C3582.93 3197.59 3613.15 3211.66 3638.44 3201.16C3639.28 3206.36 3640.11 3211.66 3640.95 3216.86C3641.42 3219.99 3641.98 3223.24 3642.43 3226.49C3621.49 3230.18 3601.37 3231.69 3580.43 3225.51C3579.87 3225.3 3579.68 3226.37 3580.23 3226.6C3600.73 3233.96 3622.05 3234.72 3643.17 3231.36C3644.66 3241.2 3646.05 3251.49 3647.62 3261.79C3642.06 3261.79 3636.59 3261.46 3630.85 3262.44C3620.38 3264.16 3611.76 3260.7 3601.57 3259.4C3600.64 3259.28 3600.26 3260.91 3601.29 3261.14C3610.37 3262.65 3618.06 3266.87 3627.42 3265.99C3634.37 3265.34 3641.22 3265.67 3648.18 3265.57C3654.39 3306.58 3662.36 3349.45 3680.44 3382.36C3684.43 3389.62 3696.37 3385.61 3694.8 3376.42C3690.25 3348.17 3679.23 3321.09 3671.36 3293.82Z" fill="#1D7296"/>
<path d="M3868.59 2914.4C3872.96 3028.17 3918.55 3210.68 3802.32 3275.97C3770.99 3293.49 3733.36 3276.29 3707.59 3251.28C3673.86 3218.69 3649.48 3135.67 3639.47 3087.07C3631.51 3048.52 3633.45 3002.41 3628.72 2962.58C3623.54 2919.6 3617.7 2876.63 3612.77 2833.65C3595.27 2678.43 3635.3 2532.17 3733.08 2423.27C3752.65 2470.15 3781.83 2506.08 3809.83 2548.41C3822.62 2567.68 3834.86 2588.36 3845.05 2609.57C3863.13 2647.03 3860.62 2690.99 3860.52 2732C3860.52 2792.52 3866.28 2853.89 3868.59 2914.4Z" fill="#3A92B7"/>
<path d="M3782.39 3285.81C3781.28 3276.5 3780.26 3267.08 3779.33 3257.77C3793.99 3253.44 3807.14 3239.16 3817.81 3228.11C3836.35 3208.94 3849.6 3185.36 3862.01 3160.67C3862.67 3159.37 3860.8 3158.07 3860.07 3159.27C3846.91 3180.6 3833.01 3201.49 3815.49 3218.27C3805.75 3227.58 3791.67 3242.18 3778.42 3248.14C3777.39 3236.88 3776.47 3225.72 3775.63 3214.47C3790.37 3207.76 3801.86 3191.95 3812.8 3179.19C3831.42 3157.53 3846.08 3132.31 3861.46 3107.52C3861.64 3107.19 3861.28 3106.87 3861.08 3107.19C3836.71 3141.4 3811.14 3187.31 3775.08 3206.36C3774.15 3192.28 3773.41 3178.1 3772.85 3164.03C3772.85 3163.27 3772.85 3162.52 3772.76 3161.87C3813.72 3136 3834.68 3087.17 3861.18 3044.85C3861.64 3044.2 3860.8 3043.23 3860.35 3043.97C3833.84 3083.71 3810.2 3127.01 3772.48 3153.52C3771.82 3133.28 3771.46 3113.16 3770.99 3093.01C3806.96 3064.23 3832.73 3027.84 3852.18 2981.84C3852.56 2981.1 3851.54 2980.45 3851.17 2981.19C3830.03 3024.5 3802.79 3053.84 3770.81 3084.36C3770.35 3064.44 3769.97 3044.41 3769.32 3024.5C3784.34 3009.55 3801.03 2998.3 3814.1 2980.66C3826.97 2963.34 3837.64 2943.96 3843.58 2921.99C3843.85 2920.8 3842.37 2920.25 3842.09 2921.45C3828 2965.18 3797.03 2986.6 3768.96 3015.73C3768.31 2997.11 3767.39 2978.59 3766.18 2959.98C3797.13 2926.21 3831.62 2893.18 3842.46 2842.84C3842.55 2842.31 3841.91 2842.1 3841.81 2842.63C3829.02 2889.73 3795.1 2918.41 3765.52 2950.79C3765.25 2947.42 3765.07 2944.17 3764.89 2940.81C3763.5 2923.72 3762.01 2906.51 3760.44 2889.4C3779.05 2873.6 3795.74 2854.12 3811.32 2834.51C3822.34 2820.56 3834.3 2806.48 3839.58 2788.07C3839.96 2786.89 3838.47 2786.24 3838.1 2787.42C3825.78 2825.43 3787.59 2856.61 3759.78 2881.93C3758.21 2864.61 3756.62 2847.39 3755.05 2830.08C3784.44 2795.33 3822.26 2769.78 3834.02 2719.35C3834.4 2717.82 3832.45 2717.17 3832.08 2718.58C3818.73 2765.35 3782.49 2789.28 3754.4 2821.96C3753.48 2811.25 3752.45 2800.53 3751.62 2789.81C3785.55 2762.75 3821.15 2713.29 3832.35 2667.92C3833.01 2665.43 3829.85 2664.25 3829.11 2666.62C3816.5 2707.21 3784.26 2756.79 3750.98 2781.27C3749.59 2763.84 3748.28 2746.5 3747.17 2729.07C3747.37 2728.54 3747.45 2728 3747.45 2727.47C3763.02 2716.75 3776.65 2698.02 3788.89 2683.3C3803.63 2665.55 3817.16 2645.94 3823.55 2622.03C3824.29 2619.43 3820.59 2618.23 3820.03 2620.94C3810.94 2660.45 3776.47 2695.3 3746.71 2718.26C3746.33 2711.87 3745.97 2705.49 3745.7 2699.11C3745.22 2689.57 3744.86 2680.05 3744.49 2670.42C3755.51 2655.69 3771.36 2645.52 3782.31 2630.13C3791.85 2616.83 3799.45 2601.89 3806.87 2586.85C3807.6 2585.34 3805.75 2583.92 3804.92 2585.43C3794.63 2604.28 3783.78 2622.68 3769.52 2637.84C3761.55 2646.26 3751.72 2652.67 3744.21 2661.65C3743.65 2646.05 3743 2630.46 3742.26 2614.77C3742.44 2614.67 3742.54 2614.56 3742.72 2614.56C3742.92 2614.56 3743.1 2614.56 3743.19 2614.56C3744.11 2614.44 3744.86 2613.91 3745.22 2613.14C3762.28 2602.42 3772.2 2580.02 3781 2560.86C3781.2 2560.44 3780.64 2560 3780.44 2560.44C3770.63 2578.07 3759.41 2597.66 3743.47 2608.71C3743.37 2608.71 3743.37 2608.71 3743.28 2608.71C3742.82 2608.71 3742.36 2608.83 3741.88 2608.83C3741.25 2596.15 3740.51 2583.48 3739.68 2570.83C3740.97 2570.18 3741.8 2568.56 3741.15 2567.03C3749.12 2556.65 3755.79 2544.4 3762.01 2532.61C3762.46 2531.75 3761.35 2530.87 3760.89 2531.75C3754.22 2542.89 3747.27 2552.43 3739.02 2561.51C3736.98 2535.42 3734.2 2509.45 3729.84 2483.57C3729.47 2481.2 3726.41 2482.06 3726.69 2484.45C3730.12 2509.56 3732.35 2534.67 3733.92 2560C3720.57 2547.55 3706.02 2535.09 3696.01 2519.29C3695.46 2518.43 3694.34 2519.19 3694.8 2520.17C3700.18 2530.22 3707.41 2538.25 3714.65 2546.46C3721.12 2553.82 3726.96 2562.8 3734.47 2568.88C3735.31 2582.41 3735.86 2596.04 3736.42 2609.69C3723.73 2610.99 3711.96 2611.63 3699.73 2604.28C3684.71 2595.29 3673.96 2580.23 3668.58 2561.51C3667.92 2559.23 3664.78 2560.21 3665.42 2562.48C3670.62 2579.81 3680.26 2594.64 3693.51 2604.81C3707.41 2615.42 3721.12 2616.07 3736.62 2615.3C3737.17 2631.01 3737.63 2646.7 3738.09 2662.51C3725.3 2658.08 3712.88 2650.93 3700.84 2644.54C3681.47 2634.26 3668.12 2619.11 3650.42 2606.32C3648.65 2605.02 3646.88 2608.18 3648.65 2609.48C3665.24 2621.92 3677.93 2636.86 3696.01 2647.03C3708.99 2654.39 3723.73 2664.13 3738.19 2668.03C3738.19 2668.89 3738.19 2669.66 3738.29 2670.52C3738.19 2670.75 3738.01 2670.84 3737.91 2671.07C3737.17 2672.47 3737.53 2673.77 3738.37 2674.53C3738.74 2689.57 3739.2 2704.61 3739.68 2719.67C3739.68 2720.65 3739.76 2721.51 3739.76 2722.48C3707.97 2715.66 3659.68 2701.8 3647.54 2664.25C3646.43 2660.67 3641.88 2663.04 3643.46 2666.62C3661.35 2707.86 3706.68 2715.01 3740.13 2730.49C3740.87 2747.48 3741.8 2764.49 3742.92 2781.36C3722.89 2779.41 3703.42 2775.42 3684.89 2765.67C3668.02 2756.79 3644.76 2746.94 3634.01 2728.54C3633.63 2728 3632.98 2728.65 3633.26 2729.19C3643.46 2747.59 3664.31 2756.14 3680.26 2766C3700.46 2778.55 3720.57 2788.3 3743.19 2789.05C3743.19 2789.81 3743.28 2790.58 3743.65 2791.22C3744.39 2801.93 3745.22 2812.65 3746.15 2823.37C3710.85 2830.52 3655.88 2814.06 3631.51 2788.72C3631.41 2788.63 3631.23 2788.84 3631.33 2788.95C3648.47 2808.75 3669.59 2816.99 3692.67 2822.72C3709.92 2827.04 3728.83 2832.56 3746.53 2828.99C3748.2 2848.81 3749.95 2868.72 3751.62 2888.54C3735.23 2886.48 3718.62 2887.99 3702.23 2885.39C3677.93 2881.6 3656.99 2868.07 3639.1 2849.02C3637.98 2847.83 3636.32 2849.57 3637.43 2850.87C3670.98 2888.31 3708.25 2891.14 3752.27 2895.9C3753.66 2912.12 3754.96 2928.48 3756.07 2944.82C3721.4 2947.21 3673.58 2936.28 3649.66 2907.69C3647.91 2905.65 3645.04 2908.66 3646.8 2910.73C3662 2929.13 3683.14 2937.26 3704.08 2942.76C3719.18 2946.66 3740.41 2954.36 3756.62 2951C3756.62 2951.53 3756.72 2952.09 3756.72 2952.62C3758.29 2976.11 3759.41 2999.71 3760.06 3023.2C3720.85 3023.31 3690.07 2998.41 3656.72 2976.43C3654.39 2974.92 3652.17 2978.92 3654.49 2980.54C3688.6 3003.94 3719.73 3029.79 3760.24 3030.12C3760.8 3049.29 3761.07 3068.55 3761.27 3087.72C3727.62 3086.75 3690.83 3069.85 3664.03 3045.92C3662.08 3044.2 3660.23 3047.87 3662.08 3049.61C3690.27 3075.81 3726.05 3091.39 3761.35 3095.19C3761.45 3115.76 3761.45 3136.44 3761.35 3157C3727.8 3160.78 3697.86 3144.54 3671.46 3120.52C3670.8 3119.98 3669.97 3121.17 3670.62 3121.81C3694.52 3145.3 3728.36 3170.53 3761.27 3164.57C3761.27 3171.18 3761.17 3177.77 3761.17 3184.27C3761.17 3188.28 3761.07 3192.28 3761.07 3196.39C3734.95 3195.2 3710.1 3191.63 3685.92 3178.42C3685.26 3178.1 3684.81 3179.3 3685.44 3179.63C3708.9 3194.02 3734.67 3200.84 3760.99 3202.47C3760.8 3214.91 3760.52 3227.67 3760.34 3240.67C3753.57 3239.16 3746.99 3237.31 3739.86 3236.88C3726.78 3236.23 3717.05 3229.53 3704.91 3225.3C3703.8 3224.86 3703.06 3226.81 3704.18 3227.25C3714.92 3231.57 3723.45 3238.72 3734.95 3240.23C3743.47 3241.32 3751.81 3243.59 3760.24 3245.22C3759.6 3296.86 3760.89 3351.08 3776.27 3395.89C3779.71 3405.87 3795.1 3404.24 3795 3392.55C3794.73 3356.92 3786.56 3321.11 3782.39 3285.81Z" fill="#1D7296"/>
<path d="M3932.73 3328.47L3928.47 3420.91L3921.71 3564.88L3910.68 3801.51H3636.41L3625.39 3564.88L3618.61 3420.91L3614.36 3328.47H3932.73Z" fill="#95A8B5"/>
<path d="M3928.47 3420.91L3927.55 3439.41L3926.72 3458.58L3921.71 3564.88H3625.39L3620.38 3458.58L3619.55 3439.41L3618.63 3420.91H3928.47Z" fill="#A5B7C6"/>
<path d="M3927.53 3439.41L3926.7 3458.58H3620.36L3619.53 3439.41H3927.53Z" fill="#95A8B5"/>
</svg>
