<svg width="512" height="512" viewBox="0 0 512 512" fill="none" xmlns="http://www.w3.org/2000/svg">
<path d="M256 64C256 64 124.032 177.92 50.2827 239.616C45.9521 243.541 42.6667 249.259 42.6667 256C42.6667 267.797 52.2027 277.333 64.0001 277.333H106.667V426.667C106.667 438.464 116.203 448 128 448H192C203.797 448 213.333 438.443 213.333 426.667V341.333H298.667V426.667C298.667 438.443 308.203 448 320 448H384C395.797 448 405.333 438.464 405.333 426.667V277.333H448C459.797 277.333 469.333 267.797 469.333 256C469.333 249.259 466.048 243.541 461.163 239.616C387.925 177.92 256 64 256 64Z" fill="#FFF5F5"/>
</svg>
